0: Manuel Ahumada 44729959 09-04-2003 Tecnico M 2839502371829302 3046 0
1: Javier Ahumada 21003673 10-08-1969 Redes M 3748291829302812 1232 0
2: Yanina Ponce 23102267 02-01-1973 Administracion F 2718493626172738 2571 0
3: Lola Ahumada 47829103 01-04-2005 Estudiante F 2637182938231239 1234 0
4: Carlos Gomez 25893281 08-09-1991 Ingeniero M 2839103728392019 1234 0
