0: ABUL-SRL 3048275493 08-11-2015 Electronica 2930483921284839 3333 0
1: AYSA 3028374293481 01-01-1965 Agua 2938182349203927 9898 0
2: MESADAS 31928463923 09-07-2008 Muebleria 2930182737482930 1010 0
3: PORSCHE 304927461248 09-09-1986 Automoviles 2039284728394028 4598 0
4: MATEK 3029182372 09-11-2017 Electronica 2839405772612812 0909 0
